Place,Sex,Name,Event,Division,WeightClassKg,Equipment,Team,State,BodyweightKg,Squat1Kg,Squat2Kg,Squat3Kg,Best3SquatKg,Bench1Kg,Bench2Kg,Bench3Kg,Best3BenchKg,Deadlift1Kg,Deadlift2Kg,Deadlift3Kg,Best3DeadliftKg,TotalKg,BirthYear
1,M,Justin Rife,SBD,M-JV,52,Single-ply,Omro Hi,WI,51.8,97.5,-100,-100,97.5,57.5,62.5,-65,62.5,117.5,125,127.5,127.5,287.5,2000
2,M,Xavier Ollarzabal,SBD,M-JV,52,Single-ply,Necedah,WI,51.7,105,112.5,115,115,52.5,57.5,62.5,62.5,102.5,107.5,-112.5,107.5,285,2000
3,M,Holden Manhart,SBD,M-JV,52,Single-ply,Necedah,WI,50,107.5,112.5,115,115,50,52.5,-57.5,52.5,107.5,112.5,-117.5,112.5,280,2001
4,M,Thomas Schell,SBD,M-JV,52,Single-ply,Osceola,WI,51.1,100,107.5,-112.5,107.5,57.5,62.5,-67.5,62.5,110,-112.5,-115,110,280,2001
5,M,Johnathan McClain,SBD,M-JV,52,Single-ply,Woodwar,IA,49.9,-85,92.5,-100,92.5,47.5,55,57.5,57.5,107.5,115,120,120,270,1999
1,M,Jerric Blair,SBD,M-JV,56,Single-ply,River F,WI,54.7,120,130,137.5,137.5,65,-70,70,70,137.5,150,-157.5,150,357.5,2000
2,M,Alexander McElmury,SBD,M-JV,56,Single-ply,Kasson,MN,55.7,115,125,-130,125,62.5,-67.5,67.5,67.5,130,147.5,155,155,347.5,1999
3,M,Luis Grijalva,SBD,M-JV,56,Single-ply,Woodwar,IA,55.7,95,107.5,115,115,57.5,62.5,65,65,140,150,155,155,335,1999
4,M,Adrian Herbst,SBD,M-JV,56,Single-ply,River F,WI,55.4,102.5,110,-120,110,65,67.5,-70,67.5,122.5,135,-152.5,135,312.5,2000
1,M,Hunter Vidrine,SBD,M-JV,60,Single-ply,Covingt,LA,59.5,142.5,152.5,162.5,162.5,102.5,110,112.5,112.5,155,160,165,165,440,1999
2,M,Miles Priefer,SBD,M-JV,60,Single-ply,Waterfo,WI,58.3,147.5,160,165,165,85,87.5,,87.5,150,157.5,-162.5,157.5,410,1999
3,M,Jonah Picasso,SBD,M-JV,60,Single-ply,O'Gorma,SD,60,130,142.5,-147.5,142.5,77.5,-80,-80,77.5,150,160,167.5,167.5,387.5,2001
4,M,Gavin Jassoy,SBD,M-JV,60,Single-ply,Horlick,WI,59.1,140,147.5,155,155,72.5,-77.5,-77.5,72.5,145,150,157.5,157.5,385,1999
5,M,Nate Ramsey,SBD,M-JV,60,Single-ply,Horlick,WI,58.4,-135,135,142.5,142.5,65,70,75,75,140,147.5,155,155,372.5,2000
6,M,Michael Nichols #2,SBD,M-JV,60,Single-ply,Woodwar,IA,59.3,122.5,140,-142.5,140,85,92.5,-110,92.5,140,-155,-155,140,372.5,
7,M,Kyllian Harper,SBD,M-JV,60,Single-ply,Hershey,PA,59.6,130,140,-147.5,140,72.5,-77.5,77.5,77.5,130,145,-155,145,362.5,2000
1,M,Sam Bassan,SBD,M-JV,67.5,Single-ply,Adams F,WI,65.7,192.5,-202.5,-202.5,192.5,82.5,-92.5,92.5,92.5,202.5,-210,-210,202.5,487.5,2001
2,M,Jabari Walls,SBD,M-JV,67.5,Single-ply,Woodwar,IA,67,125,140,-150,140,80,-90,-90,80,172.5,185,190,190,410,2000
3,M,Dustin Dziekan,SBD,M-JV,67.5,Single-ply,Mondovi,WI,66.7,-120,125,135,135,85,92.5,97.5,97.5,157.5,170,-172.5,170,402.5,1999
DQ,M,Ian West,SBD,M-JV,67.5,Single-ply,Hershey,PA,66.7,-190,-190,-190,,110,120,125,125,195,212.5,-217.5,212.5,,1999
1,M,Luis Perales,SBD,M-JV,75,Single-ply,Carrizo,TX,72.7,200,-215,-215,200,125,132.5,142.5,142.5,197.5,210,-220,210,552.5,1999
2,M,Ralph Crandle,SBD,M-JV,75,Single-ply,Covingt,LA,73.1,182.5,190,-195,190,102.5,110,112.5,112.5,215,230,237.5,237.5,540,1999
3,M,Shane Nutt,SBD,M-JV,75,Single-ply,Ionia H,MI,71.4,177.5,190,200,200,87.5,97.5,102.5,102.5,215,235,-240,235,537.5,2000
4,M,Noah Johnson,SBD,M-JV,75,Single-ply,Horlick,WI,72.9,195,207.5,212.5,212.5,102.5,107.5,110,110,205,215,-220,215,537.5,2000
5,M,Edmund Gonzales,SBD,M-JV,75,Single-ply,Woodwar,IA,71.5,160,177.5,-190,177.5,117.5,130,-142.5,130,180,195,205,205,512.5,1999
6,M,Dillon Gitz,SBD,M-JV,75,Single-ply,Covingt,LA,73.8,175,182.5,-187.5,182.5,97.5,105,110,110,205,215,-222.5,215,507.5,1999
7,M,James Schultz,SBD,M-JV,75,Single-ply,,WI,74.4,172.5,-185,-187.5,172.5,115,122.5,-130,122.5,172.5,187.5,-200,187.5,482.5,2000
8,M,Eric Gonzalez #3,SBD,M-JV,75,Single-ply,Carrizo,TX,73.9,152.5,175,182.5,182.5,87.5,95,-100,95,180,192.5,200,200,477.5,1999
9,M,Taylor Maese,SBD,M-JV,75,Single-ply,Kelly W,WY,70.7,145,150,170,170,85,90,95,95,180,185,-195,185,450,1999
10,M,Matthew Paris,SBD,M-JV,75,Single-ply,Kelly W,WY,73.4,162.5,-172.5,-177.5,162.5,-90,90,-95,90,170,-180,-180,170,422.5,2000
11,M,Ian Pfaff,SBD,M-JV,75,Single-ply,Indepen,WI,75,142.5,-152.5,152.5,152.5,92.5,97.5,-102.5,97.5,160,167.5,172.5,172.5,422.5,2000
DQ,M,Trenton Kruger,SBD,M-JV,75,Single-ply,Kasson,MN,72,,,,,,,,,,,,,,2000
DQ,M,Austin Payne,SBD,M-JV,75,Single-ply,Adams F,WI,74.5,-170,-170,-170,,82.5,-92.5,-92.5,82.5,170,177.5,-180,177.5,,2000
1,M,Matthew Weisberg,SBD,M-JV,82.5,Single-ply,Chelsea,MI,79.4,182.5,205,215,215,120,127.5,137.5,137.5,215,237.5,-262.5,237.5,590,1999
2,M,James Johnson,SBD,M-JV,82.5,Single-ply,Woodwar,IA,79.1,170,192.5,-207.5,192.5,107.5,117.5,-127.5,117.5,180,192.5,210,210,520,1990
3,M,Allen Pennington,SBD,M-JV,82.5,Single-ply,Covingt,LA,80.7,185,197.5,-202.5,197.5,112.5,117.5,120,120,185,195,202.5,202.5,520,2000
4,M,Trey Fucaloro,SBD,M-JV,82.5,Single-ply,Woodwar,IA,81,162.5,-180,180,180,112.5,-125,125,125,175,187.5,192.5,192.5,497.5,1999
5,M,Shane Kierstyn,SBD,M-JV,82.5,Single-ply,Adams F,WI,77,157.5,172.5,180,180,117.5,-127.5,127.5,127.5,160,175,182.5,182.5,490,2001
6,M,Tanner Carver,SBD,M-JV,82.5,Single-ply,New Ric,WI,78.1,165,175,-180,175,87.5,97.5,-105,97.5,195,212.5,-220,212.5,485,2000
7,M,Drake Hodge,SBD,M-JV,82.5,Single-ply,Covingt,LA,81.8,180,-185,-185,180,102.5,105,107.5,107.5,165,180,-205,180,467.5,1999
8,M,Riley Bangiorno,SBD,M-JV,82.5,Single-ply,Indepen,WI,76,142.5,152.5,167.5,167.5,92.5,100,102.5,102.5,162.5,177.5,192.5,192.5,462.5,2000
9,M,Travis Messer,SBD,M-JV,82.5,Single-ply,New Ric,WI,80.7,160,-172.5,-172.5,160,100,107.5,112.5,112.5,172.5,182.5,190,190,462.5,2000
10,M,Zach Perry,SBD,M-JV,82.5,Single-ply,Horlick,WI,79,162.5,172.5,-177.5,172.5,90,95,97.5,97.5,175,180,-187.5,180,450,2000
1,M,Mario Mendoza,SBD,M-JV,90,Single-ply,Carrizo,TX,87.7,200,210,-220,210,127.5,132.5,140,140,215,225,-230,225,575,2000
2,M,Corey Prom,SBD,M-JV,90,Single-ply,Whitnal,WI,88.6,187.5,197.5,207.5,207.5,115,-120,-122.5,115,197.5,205,-220,205,527.5,2000
3,M,Cruz Montes,SBD,M-JV,90,Single-ply,Carrizo,TX,88.8,-190,190,200,200,-122.5,122.5,130,130,175,187.5,195,195,525,1999
4,M,Asa Campbell,SBD,M-JV,90,Single-ply,Woodwar,IA,89.2,155,172.5,-187.5,172.5,110,-122.5,122.5,122.5,175,187.5,195,195,490,1999
5,M,Dustin Knopps,SBD,M-JV,90,Single-ply,Indepen,WI,85.8,170,177.5,187.5,187.5,95,100,-105,100,185,190,200,200,487.5,2000
6,M,Leonel Estrada,SBD,M-JV,90,Single-ply,Woodwar,IA,83.3,150,-167.5,-167.5,150,107.5,122.5,-130,122.5,175,-180,180,180,452.5,1999
DQ,M,Benjamin Zahn,SBD,M-JV,90,Single-ply,Horlick,WI,84.7,155,-162.5,-162.5,155,-90,-90,-90,,170,180,-190,180,,2000
1,M,Blake Ensz,SBD,M-JV,100,Single-ply,Tea Are,SD,98.9,-235,240,255,255,157.5,-165,165,165,210,-217.5,217.5,217.5,637.5,1999
2,M,Drake Schafer,SBD,M-JV,100,Single-ply,O'Gorma,SD,92.6,185,-220,220,220,102.5,110,115,115,192.5,210,225,225,560,1999
3,M,Jeffrey De Leon,SBD,M-JV,100,Single-ply,Carrizo,TX,94.9,-182.5,-182.5,182.5,182.5,107.5,115,117.5,117.5,225,235,-237.5,235,535,2000
4,M,Dalton Gautsch,SBD,M-JV,100,Single-ply,Horlick,WI,99.1,-180,-187.5,187.5,187.5,102.5,110,115,115,190,200,215,215,517.5,2000
5,M,Marcos Chavez Jr,SBD,M-JV,100,Single-ply,Horlick,WI,97.6,172.5,182.5,190,190,-105,105,110,110,180,190,205,205,505,1999
1,M,Cody Turner,SBD,M-JV,110,Single-ply,Covingt,LA,110,-215,215,220,220,167.5,172.5,-182.5,172.5,180,197.5,227.5,227.5,620,1999
2,M,Jordan Stokes,SBD,M-JV,110,Single-ply,Omro Hi,WI,104.6,195,202.5,-207.5,202.5,130,135,-137.5,135,192.5,202.5,-227.5,202.5,540,2001
3,M,Jackson Serwa,SBD,M-JV,110,Single-ply,Kasson,MN,106.6,-212.5,227.5,,227.5,105,120,,120,182.5,,,182.5,530,2000
4,M,Carter Welch,SBD,M-JV,110,Single-ply,Bloomer,WI,102.4,190,200,205,205,100,105,112.5,112.5,185,195,200,200,517.5,2000
5,M,Michael Young,SBD,M-JV,110,Single-ply,Racine,WI,104.8,182.5,195,-205,195,102.5,107.5,115,115,185,192.5,205,205,515,2000
6,M,Connor Mahlum,SBD,M-JV,110,Single-ply,Mondovi,WI,102.2,170,175,180,180,90,100,102.5,102.5,180,200,-232.5,200,482.5,1999
1,M,David Still,SBD,M-JV,125,Single-ply,Hershey,PA,122.8,205,225,235,235,122.5,132.5,-137.5,132.5,185,200,215,215,582.5,1999
2,M,Tyler David,SBD,M-JV,125,Single-ply,Necedah,WI,120.1,205,-220,225,225,117.5,125,127.5,127.5,180,185,190,190,542.5,1999
3,M,Nicholas Coca,SBD,M-JV,125,Single-ply,Horlick,WI,113.6,190,197.5,-202.5,197.5,102.5,110,115,115,200,210,-230,210,522.5,2000
1,M,Niko Iglesias,SBD,M-JV,125+,Single-ply,Mauston,WI,144.9,237.5,250,-260,250,107.5,117.5,-125,117.5,207.5,215,-245,215,582.5,2000
DQ,M,James Allen,SBD,M-JV,125+,Single-ply,Woodwar,IA,127.9,-185,-185,-185,,120,-135,135,135,155,167.5,177.5,177.5,,1995
1,M,Trai Chatman,SBD,M-V,52,Single-ply,Covingt,LA,51.4,-175,175,-185,175,120,125,130,130,175,180,185,185,490,1998
2,M,Nickolas Gordon,SBD,M-V,52,Single-ply,St .Pau,LA,51.6,175,-187.5,-187.5,175,115,120,125,125,167.5,175,-180,175,475,1997
3,M,Cordarius Harris,SBD,M-V,52,Single-ply,Lake Co,MS,51.7,142.5,162.5,-175,162.5,92.5,-107.5,-107.5,92.5,162.5,195,-197.5,195,450,2000
4,M,Matt Devine,SBD,M-V,52,Single-ply,Abingto,PA,51.3,-145,145,155,155,92.5,95,97.5,97.5,147.5,157.5,165,165,417.5,1997
5,M,Bryce Londerville,SBD,M-V,52,Single-ply,Neenah,WI,51.7,127.5,137.5,-150,137.5,65,72.5,82.5,82.5,-140,150,162.5,162.5,382.5,1998
6,M,Logan Pennington,SBD,M-V,52,Single-ply,Covingt,LA,51.2,117.5,127.5,-135,127.5,70,75,-77.5,75,125,140,150,150,352.5,2000
7,M,Jezer Feliz,SBD,M-V,52,Single-ply,Glen Mi,PA,51.1,-75,75,82.5,82.5,50,-57.5,-57.5,50,92.5,105,110,110,242.5,2001
1,M,Montel Smith,SBD,M-V,56,Single-ply,Slidell,LA,54.9,-175,185,-195,185,87.5,-92.5,102.5,102.5,185,192.5,-195,192.5,480,1998
2,M,Trace Lawson,SBD,M-V,56,Single-ply,ASH Hig,LA,54.8,167.5,-182.5,182.5,182.5,80,87.5,-90,87.5,175,187.5,-192.5,187.5,457.5,1998
3,M,Markevious Gordon,SBD,M-V,56,Single-ply,Lake Co,MS,56,142.5,155,-160,155,92.5,97.5,100,100,150,170,177.5,177.5,432.5,1999
4,M,Cole Kaiser,SBD,M-V,56,Single-ply,River F,WI,55.7,152.5,162.5,-170,162.5,67.5,-72.5,-72.5,67.5,165,175,-180,175,405,1998
5,M,Dylan Lanke,SBD,M-V,56,Single-ply,Adams F,WI,55.1,142.5,147.5,-157.5,147.5,85,-87.5,87.5,87.5,150,-155,155,155,390,1997
6,M,Tanner Underberg,SBD,M-V,56,Single-ply,Holmen,WI,55.8,-142.5,142.5,-150,142.5,72.5,77.5,82.5,82.5,155,-162.5,-162.5,155,380,1999
7,M,Ian Oswalt,SBD,M-V,56,Single-ply,Lake Co,MS,55.6,125,140,145,145,67.5,72.5,-77.5,72.5,-137.5,-142.5,142.5,142.5,360,1999
8,M,Nicholas Johnson #1,SBD,M-V,56,Single-ply,Neenah,WI,53.6,117.5,127.5,137.5,137.5,62.5,70,-77.5,70,130,140,150,150,357.5,2001
9,M,Eric Ollarzabal,SBD,M-V,56,Single-ply,Necedah,WI,55.9,127.5,135,140,140,62.5,65,-70,65,135,142.5,-150,142.5,347.5,1999
10,M,Kyle Thyssen,SBD,M-V,56,Single-ply,Winneco,WI,55,120,-132.5,-132.5,120,57.5,62.5,-65,62.5,130,155,-172.5,155,337.5,1998
11,M,Dylan Donato,SBD,M-V,56,Single-ply,Neenah,WI,55.3,117.5,-127.5,127.5,127.5,55,60,-67.5,60,137.5,147.5,-155,147.5,335,1999
12,M,Thadedeus Golden,SBD,M-V,56,Single-ply,Lake Co,MS,53.7,-82.5,90,-95,90,65,70,75,75,130,142.5,150,150,315,1997
1,M,Terrance Phillips,SBD,M-V,60,Single-ply,ASH Hig,LA,58.3,195,215,-227.5,215,-87.5,95,105,105,177.5,192.5,217.5,217.5,537.5,1999
2,M,Matthew Kuss,SBD,M-V,60,Single-ply,Covingt,LA,59,187.5,197.5,202.5,202.5,102.5,107.5,110,110,185,202.5,-227.5,202.5,515,1997
3,M,Tahkeem Boynton,SBD,M-V,60,Single-ply,Glen Mi,PA,59.5,135,152.5,172.5,172.5,77.5,90,-100,90,165,192.5,202.5,202.5,465,1997
4,M,Jamie Gunderson,SBD,M-V,60,Single-ply,Altoona,WI,59.1,162.5,172.5,-182.5,172.5,92.5,102.5,-107.5,102.5,167.5,180,187.5,187.5,462.5,1998
5,M,Nick Piparo,SBD,M-V,60,Single-ply,Cudahy,WI,59.6,155,165,170,170,80,85,92.5,92.5,170,180,185,185,447.5,1998
6,M,Brian Miller,SBD,M-V,60,Single-ply,River F,WI,59.8,160,170,-172.5,170,82.5,-87.5,-87.5,82.5,190,-197.5,-197.5,190,442.5,1998
7,M,Bryce Johnson #2,SBD,M-V,60,Single-ply,Horlick,WI,59.2,152.5,160,-167.5,160,87.5,92.5,95,95,157.5,-165,-165,157.5,412.5,1998
8,M,Xavier Tucker,SBD,M-V,60,Single-ply,Glen Mi,PA,58.8,137.5,-142.5,-157.5,137.5,85,97.5,-107.5,97.5,142.5,152.5,-175,152.5,387.5,1999
9,M,Mitchell Perez,SBD,M-V,60,Single-ply,Glen Mi,PA,59.5,122.5,-137.5,-137.5,122.5,75,90,-100,90,155,-180,-180,155,367.5,1998
1,M,Shawn Warren #1,SBD,M-V,67.5,Single-ply,Covingt,LA,67,215,225,230,230,137.5,145,150,150,227.5,232.5,237.5,237.5,617.5,1997
2,M,Jakob Gibbs,SBD,M-V,67.5,Single-ply,Northsh,LA,66.6,192.5,202.5,-217.5,202.5,122.5,132.5,142.5,142.5,235,245,255,255,600,1999
3,M,Austin Perkins #1,SBD,M-V,67.5,Single-ply,Clinton,MS,66.8,-227.5,230,-235,230,110,120,132.5,132.5,225,232.5,237.5,237.5,600,1999
4,M,Darius Franklin,SBD,M-V,67.5,Single-ply,Glen Mi,PA,66,-197.5,197.5,220,220,120,132.5,-137.5,132.5,192.5,217.5,232.5,232.5,585,1998
5,M,Voelkel Michael,SBD,M-V,67.5,Single-ply,Whitnal,WI,66.1,225,-235,235,235,122.5,-132.5,-132.5,122.5,212.5,222.5,-230,222.5,580,1998
6,M,Hunter Hicks #2,SBD,M-V,67.5,Single-ply,ASH Hig,LA,65,222.5,237.5,-247.5,237.5,107.5,115,-122.5,115,190,207.5,222.5,222.5,575,1999
7,M,Mitchell Gibson,SBD,M-V,67.5,Single-ply,Winneco,WI,66.5,185,-207.5,207.5,207.5,85,-92.5,-92.5,85,185,207.5,-215,207.5,500,1999
8,M,Kevin Witkowski,SBD,M-V,67.5,Single-ply,Winneco,WI,66.3,175,182.5,190,190,92.5,97.5,-102.5,97.5,192.5,207.5,-217.5,207.5,495,1998
9,M,Noah Anderson #2,SBD,M-V,67.5,Single-ply,O'Gorma,SD,65.5,180,-185,-202.5,180,95,102.5,-107.5,102.5,-185,185,-200,185,467.5,2003
10,M,Drew Aron,SBD,M-V,67.5,Single-ply,Omro Hi,WI,66.8,-185,187.5,-195,187.5,87.5,90,92.5,92.5,165,182.5,-197.5,182.5,462.5,1998
11,M,Anthony Hayes,SBD,M-V,67.5,Single-ply,Lake Co,MS,66.3,-142.5,-142.5,142.5,142.5,97.5,105,-110,105,160,175,-192.5,175,422.5,1969
12,M,Felix Tyler,SBD,M-V,67.5,Single-ply,Lake Co,MS,67.3,135,-152.5,152.5,152.5,97.5,-105,-105,97.5,142.5,162.5,-172.5,162.5,412.5,1999
DQ,M,Nick Palopoli,SBD,M-V,67.5,Single-ply,Parklan,PA,65.9,212.5,-220,,212.5,137.5,145,-150,145,-200,-200,-200,,,1998
1,M,Teddy Gildersleeve,SBD,M-V,75,Single-ply,Osceola,WI,72.9,225,240,250,250,130,140,142.5,142.5,265,290,297.5,297.5,690,1997
2,M,Brahlaun Thompson,SBD,M-V,75,Single-ply,ASH Hig,LA,74.7,227.5,-245,-245,227.5,125,132.5,-137.5,132.5,230,240,-250,240,600,1997
3,M,Tadarii Jordan,SBD,M-V,75,Single-ply,Lake Co,MS,74.5,210,235,245,245,105,120,-127.5,120,190,220,230,230,595,1997
4,M,Andrew Biggers,SBD,M-V,75,Single-ply,Covingt,LA,74,192.5,-205,205,205,145,152.5,160,160,192.5,205,220,220,585,1998
5,M,Zaven Ouzounian,SBD,M-V,75,Single-ply,Case Hi,WI,74.1,215,222.5,230,230,125,130,132.5,132.5,212.5,-220,220,220,582.5,1999
6,M,Travis Schmitt,SBD,M-V,75,Single-ply,Westby,WI,74.5,182.5,192.5,-207.5,192.5,125,130,-135,130,187.5,202.5,215,215,537.5,1997
7,M,Khalid Span,SBD,M-V,75,Single-ply,Glen Mi,PA,74.3,175,200,-210,200,117.5,120,-125,120,177.5,202.5,-222.5,202.5,522.5,1997
8,M,Benjamin Mack,SBD,M-V,75,Single-ply,Elk Mou,WI,74,192.5,205,-217.5,205,87.5,92.5,102.5,102.5,192.5,200,-210,200,507.5,1997
9,M,Jalen Jordan,SBD,M-V,75,Single-ply,Lake Co,MS,74.8,160,175,-195,175,90,97.5,-100,97.5,190,220,-227.5,220,492.5,2000
1,M,Tyran Garrett,SBD,M-V,82.5,Single-ply,Covingt,LA,82.1,267.5,-282.5,282.5,282.5,167.5,180,190,190,257.5,267.5,275,275,747.5,1997
2,M,Charlie Vandaver,SBD,M-V,82.5,Single-ply,Necedah,WI,80.5,235,242.5,252.5,252.5,142.5,150,-157.5,150,220,-227.5,-227.5,220,622.5,1997
3,M,Thomas Annello,SBD,M-V,82.5,Single-ply,Covingt,LA,81.2,225,230,232.5,232.5,142.5,145,152.5,152.5,187.5,202.5,212.5,212.5,597.5,1999
4,M,Sam Dantinne,SBD,M-V,82.5,Single-ply,Whitnal,WI,80.2,230,-240,-240,230,102.5,105,107.5,107.5,237.5,250,-260,250,587.5,1997
5,M,Mathew Boyle,SBD,M-V,82.5,Single-ply,Frankli,MA,79.1,192.5,202.5,212.5,212.5,130,137.5,145,145,220,-227.5,-240,220,577.5,1998
6,M,Evan Koehnke,SBD,M-V,82.5,Single-ply,Neenah,WI,81.5,217.5,230,-237.5,230,-107.5,110,-120,110,225,237.5,-250,237.5,577.5,1997
7,M,Brady Zink,SBD,M-V,82.5,Single-ply,Winneco,WI,80.3,205,210,-217.5,210,110,115,-120,115,227.5,-242.5,-242.5,227.5,552.5,1997
8,M,Seth Butler,SBD,M-V,82.5,Single-ply,Holmen,,81.4,207.5,217.5,-227.5,217.5,102.5,112.5,117.5,117.5,207.5,217.5,-230,217.5,552.5,1999
9,M,Devon Chestnut,SBD,M-V,82.5,Single-ply,Glen Mi,PA,78.9,165,185,200,200,120,-135,-135,120,182.5,207.5,227.5,227.5,547.5,1969
10,M,Raheem Neal,SBD,M-V,82.5,Single-ply,Glen Mi,PA,80.8,170,-195,-195,170,-102.5,-112.5,112.5,112.5,197.5,220,227.5,227.5,510,1969
DQ,M,Sam Janssen,SBD,M-V,82.5,Single-ply,Little,WI,79.6,227.5,230,245,245,115,132.5,-147.5,132.5,-227.5,-227.5,-227.5,,,1997
1,M,Logan Rogers,SBD,M-V,90,Single-ply,Covingt,LA,89.7,245,257.5,-262.5,257.5,90,155,165,165,265,280,295,295,717.5,1998
2,M,Gabriel Stapinski,SBD,M-V,90,Single-ply,Slidell,LA,87.7,267.5,275,285,285,135,140,142.5,142.5,262.5,270,-282.5,270,697.5,1997
3,M,William Lewis,SBD,M-V,90,Single-ply,ASH Hig,LA,83.2,-267.5,267.5,277.5,277.5,122.5,130,132.5,132.5,280,-297.5,-297.5,280,690,1998
4,M,Cooper Riehl,SBD,M-V,90,Single-ply,St. Mar,WI,89.5,227.5,-240,252.5,252.5,117.5,125,-132.5,125,-235,245,255,255,632.5,1999
5,M,Dylan Garrett,SBD,M-V,90,Single-ply,Covingt,LA,87.6,-220,220,-227.5,220,142.5,150,157.5,157.5,225,235,245,245,622.5,1999
6,M,Isaac Jerde,SBD,M-V,90,Single-ply,Appleto,WI,84.9,227.5,240,-247.5,240,125,-132.5,135,135,220,-237.5,-240,220,595,1998
7,M,Emire Hill,SBD,M-V,90,Single-ply,Glen Mi,PA,88.9,202.5,212.5,-227.5,212.5,112.5,130,135,135,207.5,222.5,235,235,582.5,1998
8,M,Aaron Vaith,SBD,M-V,90,Single-ply,Kasson,MN,88.3,215,-237.5,-237.5,215,117.5,120,-127.5,120,185,-195,-195,185,520,1997
9,M,Raheem Sims,SBD,M-V,90,Single-ply,Glen Mi,PA,89,172.5,197.5,202.5,202.5,100,-110,110,110,182.5,202.5,-232.5,202.5,515,1969
10,M,Gunnar Sommervold,SBD,M-V,90,Single-ply,O'Gorma,SD,86.4,70,,,70,-132.5,-132.5,132.5,132.5,105,,,105,307.5,1998
1,M,Benny Benson,SBD,M-V,100,Single-ply,Lake Co,MS,99.7,292.5,-310,-310,292.5,182.5,-190,-190,182.5,260,267.5,-275,267.5,742.5,1997
2,M,Joshua Peardot,SBD,M-V,100,Single-ply,,WI,99.6,272.5,-290,290,290,155,162.5,165,165,262.5,275,-292.5,275,730,1998
3,M,Jonathan Rushing,SBD,M-V,100,Single-ply,St. Pau,LA,95.3,287.5,295,-305,295,150,160,162.5,162.5,265,-277.5,,265,722.5,1998
4,M,James Goebel,SBD,M-V,100,Single-ply,Whitnal,WI,98,260,272.5,-282.5,272.5,175,-185,-187.5,175,237.5,250,260,260,707.5,1997
5,M,Erik Eaton,SBD,M-V,100,Single-ply,River F,WI,100,250,265,272.5,272.5,-155,155,160,160,250,265,-277.5,265,697.5,1998
6,M,Samuel Bartlett,SBD,M-V,100,Single-ply,Horlick,WI,96.9,232.5,245,-255,245,145,155,165,165,222.5,230,235,235,645,1998
7,M,Nixlot Dameus,SBD,M-V,100,Single-ply,Delawar,PA,99.5,205,-210,210,210,160,165,-170,165,260,-262.5,-262.5,260,635,1998
8,M,Semaj Robinson,SBD,M-V,100,Single-ply,Glen Mi,PA,98.9,197.5,212.5,-227.5,212.5,112.5,130,140,140,205,222.5,235,235,587.5,1998
9,M,Felix Adorno,SBD,M-V,100,Single-ply,Glen Mi,PA,98.2,175,202.5,-207.5,202.5,120,137.5,142.5,142.5,192.5,227.5,-240,227.5,572.5,1999
1,M,Dylon Cook,SBD,M-V,110,Single-ply,Northla,LA,108.5,-347.5,360,-375,360,-175,175,182.5,182.5,292.5,300,305,305,847.5,1998
2,M,Mitchell Cowman,SBD,M-V,110,Single-ply,Whitnal,WI,108.3,260,270,280,280,205,217.5,227.5,227.5,245,-262.5,-265,245,752.5,1997
3,M,Joe Ducote,SBD,M-V,110,Single-ply,ASH Hig,LA,109.1,-255,260,272.5,272.5,140,150,152.5,152.5,240,262.5,-287.5,262.5,687.5,1998
4,M,Logan Kobernusz,SBD,M-V,110,Single-ply,O'Gorma,SD,107.7,262.5,280,-292.5,280,135,142.5,-145,142.5,257.5,262.5,-285,262.5,685,1998
5,M,Kenny Thums,SBD,M-V,110,Single-ply,Omro Hi,WI,103.4,257.5,262.5,267.5,267.5,142.5,150,152.5,152.5,222.5,232.5,250,250,670,1997
6,M,Matt Stauch,SBD,M-V,110,Single-ply,Hershey,PA,107.2,240,255,267.5,267.5,145,155,165,165,217.5,230,237.5,237.5,670,1999
7,M,Robert Troyer,SBD,M-V,110,Single-ply,Northsh,LA,107.8,222.5,227.5,-235,227.5,162.5,172.5,-182.5,172.5,245,257.5,-272.5,257.5,657.5,1997
8,M,Dominic Vent,SBD,M-V,110,Single-ply,Whitnal,WI,106.9,232.5,245,257.5,257.5,135,147.5,157.5,157.5,-202.5,212.5,225,225,640,1998
9,M,Kolby Parker,SBD,M-V,110,Single-ply,ASH Hig,LA,108.8,225,237.5,-255,237.5,147.5,152.5,157.5,157.5,205,225,-247.5,225,620,1997
10,M,Nic Brinkman,SBD,M-V,110,Single-ply,Sturgeo,WI,107.2,-210,-215,215,215,140,147.5,152.5,152.5,227.5,242.5,247.5,247.5,615,1997
11,M,Noah Stem,SBD,M-V,110,Single-ply,Lake Co,MS,109.5,-227.5,232.5,-242.5,232.5,120,125,130,130,227.5,-257.5,-257.5,227.5,590,1999
12,M,Mujahid Gooden,SBD,M-V,110,Single-ply,Glen Mi,PA,105.6,182.5,202.5,227.5,227.5,-115,-130,130,130,195,215,-235,215,572.5,1998
13,M,Shan Bloomer,SBD,M-V,110,Single-ply,Necedah,WI,105.4,217.5,227.5,-240,227.5,105,110,-120,110,182.5,195,-212.5,195,532.5,1999
1,M,Declan Dilley,SBD,M-V,125,Single-ply,Horlick,WI,122.2,277.5,290,300,300,182.5,195,-205,195,267.5,282.5,290,290,785,1998
2,M,Andre Dusek,SBD,M-V,125,Single-ply,River F,WI,110.7,272.5,297.5,310,310,165,175,-180,175,237.5,-262.5,-262.5,237.5,722.5,1998
3,M,Joseph Humphrey,SBD,M-V,125,Single-ply,ASH Hig,LA,110.3,252.5,-262.5,-262.5,252.5,142.5,150,-160,150,275,282.5,300,300,702.5,1998
4,M,Mason Cordes,SBD,M-V,125,Single-ply,Bowling,OH,117.3,-255,265,275,275,187.5,-200,-200,187.5,230,240,-250,240,702.5,1997
5,M,Kole Parr,SBD,M-V,125,Single-ply,Covingt,LA,124.1,-257.5,260,275,275,122.5,175,185,185,217.5,-225,232.5,232.5,692.5,1998
6,M,Josh Green,SBD,M-V,125,Single-ply,ASH Hig,LA,115.3,260,-272.5,272.5,272.5,132.5,-195,-195,132.5,202.5,-220,-220,202.5,607.5,1983
7,M,Jay Williams,SBD,M-V,125,Single-ply,River F,WI,115.5,240,-250,-250,240,125,132.5,140,140,200,215,227.5,227.5,607.5,1997
8,M,Sean Nash,SBD,M-V,125,Single-ply,Glen Mi,PA,110.4,180,192.5,207.5,207.5,115,125,-135,125,182.5,-197.5,207.5,207.5,540,1997
1,M,Dylan Erickson,SBD,M-V,125+,Single-ply,Northsh,LA,126.2,260,-275,280,280,135,160,167.5,167.5,275,285,297.5,297.5,745,1998
2,M,Ryan Ratcliff,SBD,M-V,125+,Single-ply,Bloomer,WI,131.2,272.5,-285,290,290,140,147.5,-150,147.5,275,285,297.5,297.5,735,1998
3,M,Jeffrey Marx,SBD,M-V,125+,Single-ply,Youngst,OH,139.5,245,260,-272.5,260,150,160,-167.5,160,252.5,270,-277.5,270,690,1998
4,M,Issac Hughes,SBD,M-V,125+,Single-ply,ASH Hig,LA,125.1,265,275,-287.5,275,145,157.5,160,160,240,-255,-257.5,240,675,1997
5,M,Ashton Washington,SBD,M-V,125+,Single-ply,Slidell,LA,138.1,262.5,272.5,-287.5,272.5,160,-167.5,167.5,167.5,205,-215,232.5,232.5,672.5,1999
6,M,Riley Kellom,SBD,M-V,125+,Single-ply,Germant,WI,138.6,265,280,290,290,160,-167.5,167.5,167.5,197.5,210,215,215,672.5,1998
7,M,Mario Chavez,SBD,M-V,125+,Single-ply,Carrizo,TX,190.3,185,200,217.5,217.5,192.5,205,-215,205,220,222.5,227.5,227.5,650,1997
8,M,Juventino Torres Jr,SBD,M-V,125+,Single-ply,Carrizo,TX,130.5,245,260,272.5,272.5,162.5,172.5,-182.5,172.5,192.5,202.5,-220,202.5,647.5,1997
9,M,Jawan Warrick,SBD,M-V,125+,Single-ply,Glen Mi,PA,139.2,-205,205,-227.5,205,95,105,110,110,205,217.5,235,235,550,1999
G,F,Shaye Winker,SBD,F-G,90,Single-ply,Mauston,WI,82.7,87.5,-100,-100,87.5,47.5,-55,-55,47.5,92.5,105,112.5,112.5,247.5,2000
1,F,Brianna Morrison,SBD,F-JV,44,Single-ply,Pedro M,FL,41.8,75,82.5,87.5,87.5,40,45,47.5,47.5,85,90,92.5,92.5,227.5,2001
1,F,Lauren Kunkel,SBD,F-JV,48,Single-ply,Whitnal,WI,46.4,95,102.5,107.5,107.5,47.5,50,-52.5,50,82.5,87.5,92.5,92.5,250,1999
2,F,Aurora Redman,SBD,F-JV,48,Single-ply,South T,LA,45.7,80,90,95,95,40,42.5,-45,42.5,90,97.5,100,100,237.5,1999
3,F,Sophia Salter,SBD,F-JV,48,Single-ply,O'Gorma,SD,48,75,80,-92.5,80,35,-40,-40,35,95,107.5,-125,107.5,222.5,2001
4,F,Emily Owens,SBD,F-JV,48,Single-ply,Holy Sa,LA,46.2,65,67.5,-72.5,67.5,27.5,30,-32.5,30,77.5,85,-90,85,182.5,1974
1,F,Anna Delao,SBD,F-JV,52,Single-ply,Horlick,WI,51.7,115,122.5,127.5,127.5,42.5,47.5,50,50,115,120,125,125,302.5,2000
2,F,Destiny LeBlanc,SBD,F-JV,52,Single-ply,Covingt,LA,51.6,90,97.5,102.5,102.5,47.5,52.5,-55,52.5,97.5,105,112.5,112.5,267.5,2001
3,F,Madeline Cieczka,SBD,F-JV,52,Single-ply,Cudahy,WI,51.7,102.5,-110,112.5,112.5,40,45,-50,45,110,-120,-120,110,267.5,2000
4,F,Tawny Knutson,SBD,F-JV,52,Single-ply,Necedah,WI,51.5,70,75,-77.5,75,30,32.5,-35,32.5,82.5,87.5,95,95,202.5,1999
5,F,Celeste Correa,SBD,F-JV,52,Single-ply,Carrizo,TX,49,67.5,-70,70,70,27.5,30,32.5,32.5,85,90,92.5,92.5,195,2001
1,F,Britney Kopp,SBD,F-JV,56,Single-ply,Cudahy,WI,55.7,125,-132.5,132.5,132.5,57.5,65,67.5,67.5,125,132.5,137.5,137.5,337.5,2001
2,F,Kenzie Svoboda,SBD,F-JV,56,Single-ply,Phillip,WI,55.4,112.5,-120,-120,112.5,62.5,67.5,72.5,72.5,125,132.5,137.5,137.5,322.5,2000
3,F,Elisabeth Oberlin,SBD,F-JV,56,Single-ply,River F,WI,54.9,107.5,115,-117.5,115,45,50,-52.5,50,102.5,105,107.5,107.5,272.5,2000
4,F,Ashlynn Arnold,SBD,F-JV,56,Single-ply,Adams F,WI,52.8,80,87.5,92.5,92.5,-35,35,40,40,92.5,102.5,-107.5,102.5,235,2001
5,F,Olivia Biggiam,SBD,F-JV,56,Single-ply,Ridgevi,IL,52.4,60,70,-77.5,70,35,37.5,40,40,92.5,102.5,-107.5,102.5,212.5,2000
6,F,Erin McCormick,SBD,F-JV,56,Single-ply,South T,LA,53.6,70,-77.5,-80,70,30,35,-40,35,72.5,77.5,80,80,185,2000
1,F,Cassie Kratt,SBD,F-JV,60,Single-ply,Cudahy,WI,58,142.5,152.5,-157.5,152.5,57.5,62.5,-67.5,62.5,142.5,150,157.5,157.5,372.5,2000
2,F,Remi Trewyn,SBD,F-JV,60,Single-ply,Necedah,WI,57.8,125,130,-135,130,57.5,62.5,65,65,127.5,132.5,135,135,330,2000
3,F,Cienna Haller,SBD,F-JV,60,Single-ply,Eau Cla,WI,59.2,115,125,130,130,52.5,57.5,-62.5,57.5,117.5,127.5,-137.5,127.5,315,2001
4,F,Emma Marietta,SBD,F-JV,60,Single-ply,River F,WI,59.7,-102.5,102.5,-115,102.5,47.5,-52.5,-52.5,47.5,107.5,120,125,125,275,2000
5,F,Sydney Landgraf,SBD,F-JV,60,Single-ply,River F,WI,59.9,80,92.5,-100,92.5,32.5,-35,-35,32.5,85,-95,97.5,97.5,222.5,2000
6,F,Kenzie Vash,SBD,F-JV,60,Single-ply,Horlick,WI,59.7,-82.5,82.5,90,90,45,47.5,-50,47.5,82.5,-87.5,-87.5,82.5,220,2000
1,F,Abbi Saunders,SBD,F-JV,67.5,Single-ply,Necedah,WI,65.6,127.5,135,145,145,52.5,55,-57.5,55,142.5,150,160,160,360,2000
2,F,Valerie Leblanc #2,SBD,F-JV,67.5,Single-ply,South T,LA,66.3,115,-127.5,127.5,127.5,50,55,-60,55,150,160,170,170,352.5,2001
3,F,Lexxie Barr,SBD,F-JV,67.5,Single-ply,Mauston,WI,67.4,137.5,-155,-155,137.5,45,52.5,55,55,135,147.5,152.5,152.5,345,1999
4,F,Kennedy Ketzer,SBD,F-JV,67.5,Single-ply,Horlick,WI,65.4,120,125,130,130,57.5,60,65,65,125,-130,-132.5,125,320,2000
5,F,Kelly Huerta,SBD,F-JV,67.5,Single-ply,Carrizo,TX,60.3,115,122.5,-130,122.5,60,65,67.5,67.5,112.5,122.5,-127.5,122.5,312.5,1999
6,F,Audry Williams,SBD,F-JV,67.5,Single-ply,Necedah,WI,66.3,120,125,127.5,127.5,50,52.5,-55,52.5,117.5,122.5,127.5,127.5,307.5,2000
7,F,Jaime Hernandez #1,SBD,F-JV,67.5,Single-ply,Necedah,WI,66.3,112.5,120,125,125,47.5,-50,-50,47.5,102.5,-110,112.5,112.5,285,2000
8,F,Jenna Mae Wieland,SBD,F-JV,67.5,Single-ply,Omro Hi,WI,63.8,-102.5,-102.5,102.5,102.5,57.5,60,62.5,62.5,102.5,110,-115,110,275,2000
9,F,Hannah White,SBD,F-JV,67.5,Single-ply,Abingto,PA,64.2,90,-100,-100,90,42.5,47.5,-50,47.5,107.5,122.5,127.5,127.5,265,1999
10,F,Johanna Moter,SBD,F-JV,67.5,Single-ply,Kelly W,WY,64.1,-70,75,80,80,40,45,-50,45,92.5,102.5,107.5,107.5,232.5,2001
1,F,Abbi Stafslien-Dumale,SBD,F-JV,75,Single-ply,La Cros,WI,73.9,157.5,167.5,175,175,80,85,90,90,152.5,165,170,170,435,2000
2,F,Shelby Vacula,SBD,F-JV,75,Single-ply,Whitnal,WI,72.6,-145,145,160,160,70,77.5,-80,77.5,142.5,147.5,-152.5,147.5,385,1999
3,F,Rhonda Peronto,SBD,F-JV,75,Single-ply,Cudahy,WI,73.6,157.5,-165,-165,157.5,65,75,-85,75,142.5,147.5,-160,147.5,380,1999
4,F,Ashley Ristic,SBD,F-JV,75,Single-ply,Oak Cre,WI,74.3,-132.5,-132.5,132.5,132.5,72.5,77.5,-80,77.5,132.5,140,145,145,355,2000
5,F,Madelyn Woychik,SBD,F-JV,75,Single-ply,Indepen,WI,73.8,-125,-125,125,125,70,-75,75,75,130,135,140,140,340,2000
6,F,Miranda Koehnke,SBD,F-JV,75,Single-ply,Mauston,WI,73.1,-145,-145,145,145,45,50,-52.5,50,115,125,135,135,330,2001
7,F,Samantha Kristian,SBD,F-JV,75,Single-ply,Necedah,WI,70.4,110,117.5,122.5,122.5,52.5,57.5,62.5,62.5,125,130,137.5,137.5,322.5,2000
8,F,Geri Fredrickson,SBD,F-JV,75,Single-ply,Indepen,WI,69.8,125,-135,135,135,60,-65,-65,60,102.5,110,120,120,315,2001
9,F,Cloe Winters,SBD,F-JV,75,Single-ply,Necedah,WI,69.1,117.5,125,130,130,50,-55,-55,50,-120,127.5,132.5,132.5,312.5,2000
10,F,Kristen Haley,SBD,F-JV,75,Single-ply,Menard,LA,72.2,-110,110,-117.5,110,57.5,60,62.5,62.5,120,135,-147.5,135,307.5,1999
11,F,Brianna Saacks,SBD,F-JV,75,Single-ply,Covingt,LA,70.8,102.5,110,120,120,57.5,62.5,-65,62.5,112.5,117.5,-137.5,117.5,300,2000
12,F,Alaina MaKutz,SBD,F-JV,75,Single-ply,Horlick,WI,69.8,92.5,-102.5,-102.5,92.5,-55,55,-62.5,55,97.5,-102.5,102.5,102.5,250,2001
13,F,Hailey Kisting,SBD,F-JV,75,Single-ply,Horlick,WI,72.3,90,-102.5,-102.5,90,55,-60,-60,55,92.5,-100,-105,92.5,237.5,2001
DQ,F,Kristen Lira,SBD,F-JV,75,Single-ply,Carrizo,TX,69.7,-97.5,-97.5,-97.5,,-42.5,-42.5,42.5,42.5,112.5,117.5,120,120,,1999
1,F,Alexea Engel,SBD,F-JV,82.5,Single-ply,Adams F,WI,80.3,132.5,140,147.5,147.5,50,-57.5,57.5,57.5,125,132.5,-137.5,132.5,337.5,1999
2,F,Heidi Colvin,SBD,F-JV,82.5,Single-ply,Germant,WI,81.6,112.5,-127.5,-140,112.5,62.5,-67.5,-67.5,62.5,132.5,142.5,150,150,325,1999
3,F,Kaitlyn Overby,SBD,F-JV,82.5,Single-ply,Phillip,WI,79.5,97.5,102.5,-107.5,102.5,62.5,-70,-70,62.5,135,142.5,-150,142.5,307.5,1999
4,F,Abigail Mcnitt,SBD,F-JV,82.5,Single-ply,New Ric,WI,78.9,130,-132.5,-132.5,130,42.5,45,50,50,-110,110,-112.5,110,290,1999
5,F,Virgina Mcmillan,SBD,F-JV,82.5,Single-ply,Phillip,WI,79.2,110,-117.5,-117.5,110,42.5,-47.5,-47.5,42.5,105,112.5,127.5,127.5,280,2001
6,F,Olivia Kempfer,SBD,F-JV,82.5,Single-ply,Mauston,WI,80.1,87.5,97.5,-100,97.5,32.5,37.5,-40,37.5,107.5,115,-120,115,250,2001
1,F,Sierra Keyes,SBD,F-JV,90,Single-ply,2 016.00,WI,83.5,125,-145,145,145,55,60,-67.5,60,125,137.5,147.5,147.5,352.5,1999
2,F,LeAnn Stinemates,SBD,F-JV,90,Single-ply,Omro Hi,WI,84.2,-132.5,132.5,-137.5,132.5,50,-55,-55,50,125,130,137.5,137.5,320,2001
3,F,Faith Brooks,SBD,F-JV,90,Single-ply,Omro Hi,WI,84,127.5,132.5,137.5,137.5,45,50,-57.5,50,125,130,-137.5,130,317.5,2000
4,F,Maleah Polzin,SBD,F-JV,90,Single-ply,South M,WI,82.6,-110,110,-117.5,110,45,-50,50,50,115,120,130,130,290,2001
5,F,Liliana Martinez,SBD,F-JV,90,Single-ply,Carrizo,TX,87.7,-115,-115,115,115,52.5,55,-60,55,112.5,117.5,-125,117.5,287.5,2000
6,F,Ana Texley,SBD,F-JV,90,Single-ply,Necedah,WI,88.8,72.5,-82.5,82.5,82.5,42.5,45,47.5,47.5,105,107.5,117.5,117.5,247.5,2000
1,F,Carlie Walker,SBD,F-JV,90+,Single-ply,Whitnal,WI,144.8,177.5,190,200,200,107.5,112.5,-117.5,112.5,157.5,167.5,172.5,172.5,485,1999
2,F,Miranda Adams,SBD,F-JV,90+,Single-ply,Horlick,WI,101,155,167.5,172.5,172.5,60,67.5,75,75,112.5,122.5,130,130,377.5,1999
3,F,Bethany Skroch,SBD,F-JV,90+,Single-ply,Indepen,WI,100,142.5,152.5,-162.5,152.5,67.5,75,82.5,82.5,107.5,117.5,122.5,122.5,357.5,2001
4,F,Madison Feazell,SBD,F-JV,90+,Single-ply,Holy Sa,LA,101,135,-142.5,-142.5,135,50,52.5,-55,52.5,147.5,160,-172.5,160,347.5,1999
5,F,Madison Thibodeau,SBD,F-JV,90+,Single-ply,New Ric,WI,95.5,125,132.5,-140,132.5,62.5,67.5,70,70,110,122.5,-140,122.5,325,1999
DQ,F,Emma Foster,SBD,F-JV,90+,Single-ply,La Cros,WI,136.1,-112.5,-112.5,-112.5,,70,77.5,-80,77.5,125,127.5,137.5,137.5,,1999
1,F,Ashley Mitchell,SBD,F-V,44,Single-ply,ASH Hig,LA,44,-127.5,127.5,-142.5,127.5,70,77.5,82.5,82.5,132.5,-147.5,160,160,370,1997
2,F,Janice Cruz,SBD,F-V,44,Single-ply,Horlick,WI,37.8,77.5,85,90,90,35,-40,42.5,42.5,90,97.5,-102.5,97.5,230,1997
1,F,Stephanie Rattunde,SBD,F-V,48,Single-ply,Necedah,WI,46.8,127.5,132.5,140,140,65,70,75,75,130,137.5,-145,137.5,352.5,1997
2,F,Stephanie Lavoy,SBD,F-V,48,Single-ply,Necedah,WI,47.9,-122.5,125,127.5,127.5,52.5,57.5,-62.5,57.5,122.5,130,132.5,132.5,317.5,1999
3,F,Zyanna Price,SBD,F-V,48,Single-ply,ASH Hig,LA,44.1,115,122.5,-127.5,122.5,45,55,-60,55,115,122.5,-140,122.5,300,2000
4,F,Savannah Moncada,SBD,F-V,48,Single-ply,Northsh,CA,47.2,102.5,112.5,125,125,42.5,45,-47.5,45,-125,-125,125,125,295,1998
5,F,Grace Albarez,SBD,F-V,48,Single-ply,Covingt,LA,45.9,107.5,115,-120,115,45,50,52.5,52.5,90,100,107.5,107.5,275,1999
6,F,Alannah Daniels,SBD,F-V,48,Single-ply,Necedah,WI,47.6,100,-107.5,107.5,107.5,50,52.5,57.5,57.5,100,110,-115,110,275,1999
7,F,Delaney Ortiz,SBD,F-V,48,Single-ply,Neenah,WI,46.5,90,97.5,102.5,102.5,40,45,50,50,95,105,110,110,262.5,2000
8,F,Emily Salm,SBD,F-V,48,Single-ply,Neenah,WI,46.8,-80,-80,80,80,37.5,42.5,47.5,47.5,95,-102.5,-102.5,95,222.5,1999
9,F,Katherine Rodriguez,SBD,F-V,48,Single-ply,Carrizo,TX,44.3,62.5,-75,-75,62.5,30,-37.5,-37.5,30,85,-92.5,-92.5,85,177.5,1998
1,F,Taylor LaChapelle,SBD,F-V,52,Single-ply,Adams F,WI,51.4,-165,165,170,170,87.5,92.5,-95,92.5,155,-162.5,-162.5,155,417.5,1999
2,F,Butler Dontoria,SBD,F-V,52,Single-ply,ASH Hig,LA,51.6,-137.5,137.5,-147.5,137.5,72.5,75,77.5,77.5,145,157.5,-175,157.5,372.5,1998
3,F,Paige Laurent,SBD,F-V,52,Single-ply,Archbis,LA,51.6,110,-122.5,127.5,127.5,60,65,70,70,127.5,132.5,-135,132.5,330,1998
4,F,Karina Garay,SBD,F-V,52,Single-ply,Carrizo,TX,51.2,117.5,125,-130,125,67.5,72.5,77.5,77.5,117.5,-122.5,122.5,122.5,325,1999
5,F,Mikaela Leibfried,SBD,F-V,52,Single-ply,Wheeler,WI,50.8,117.5,132.5,-142.5,132.5,57.5,62.5,-67.5,62.5,122.5,-135,-135,122.5,317.5,1999
6,F,Koeller Tristan,SBD,F-V,52,Single-ply,Necedah,WI,52,107.5,112.5,-117.5,112.5,50,55,-57.5,55,112.5,122.5,137.5,137.5,305,1998
7,F,Mckenzie Boerboom,SBD,F-V,52,Single-ply,Osceola,WI,51.8,105,117.5,122.5,122.5,57.5,62.5,-67.5,62.5,110,-117.5,117.5,117.5,302.5,1997
8,F,Taylor Wyngaard,SBD,F-V,52,Single-ply,Neenah,WI,51.7,105,115,122.5,122.5,52.5,57.5,62.5,62.5,100,110,-120,110,295,2001
9,F,Annika Angelo,SBD,F-V,52,Single-ply,Phillip,WI,49.3,102.5,-110,-110,102.5,62.5,67.5,-72.5,67.5,115,120,-127.5,120,290,2000
10,F,Kayleigh Tokash,SBD,F-V,52,Single-ply,Abingto,PA,51.8,92.5,-100,100,100,45,-50,50,50,100,110,-112.5,110,260,1998
11,F,Kara Brightwell,SBD,F-V,52,Single-ply,SMC,WI,51.5,-85,85,-100,85,42.5,50,52.5,52.5,-95,102.5,115,115,252.5,1998
12,F,Rylee Jopling,SBD,F-V,52,Single-ply,Mauston,WI,51.9,105,-112.5,-112.5,105,35,40,-42.5,40,100,105,-110,105,250,1998
DQ,F,Brianna Rife,SBD,F-V,52,Single-ply,Omro Hi,WI,50.3,-90,-92.5,-92.5,,-52.5,-52.5,52.5,52.5,107.5,112.5,-115,112.5,,1999
1,F,Lauren Lent,SBD,F-V,56,Single-ply,Whitnal,WI,55.5,185,195,205,205,92.5,95,97.5,97.5,175,-187.5,187.5,187.5,490,1997
2,F,Jordan Whipple,SBD,F-V,56,Single-ply,Wiscons,WI,56,-180,180,-195,180,60,67.5,77.5,77.5,142.5,155,165,165,422.5,1997
3,F,Kennedy Madison,SBD,F-V,56,Single-ply,ASH Hig,LA,55.2,127.5,140,-145,140,62.5,70,72.5,72.5,135,147.5,160,160,372.5,2000
4,F,Jordan Lewandowski,SBD,F-V,56,Single-ply,Cudahy,WI,56,-137.5,137.5,-147.5,137.5,57.5,62.5,67.5,67.5,145,150,-157.5,150,355,1998
5,F,Gabrielle Slater,SBD,F-V,56,Single-ply,Horlick,WI,55.3,130,137.5,140,140,60,62.5,67.5,67.5,132.5,142.5,-147.5,142.5,350,1998
6,F,Kirsten Olson,SBD,F-V,56,Single-ply,Holmen,WI,56,-120,120,-127.5,120,60,65,72.5,72.5,142.5,152.5,-157.5,152.5,345,1997
7,F,Gina Catalanotto,SBD,F-V,56,Single-ply,Covingt,LA,53,115,122.5,127.5,127.5,65,72.5,-75,72.5,115,125,-130,125,325,1998
8,F,Rhiannon Mach,SBD,F-V,56,Single-ply,Necedah,WI,55.7,125,130,135,135,52.5,55,57.5,57.5,110,120,125,125,317.5,1998
9,F,Micah Moore #2,SBD,F-V,56,Single-ply,Covingt,LA,55.2,115,120,125,125,55,62.5,65,65,105,115,122.5,122.5,312.5,1997
10,F,Elizabeth DeMunck,SBD,F-V,56,Single-ply,Adams F,WI,55.3,-125,125,-142.5,125,-45,45,-50,45,127.5,135,-137.5,135,305,1998
11,F,Lauren Christy,SBD,F-V,56,Single-ply,Belle F,SD,55.7,-100,110,-120,110,60,-65,-65,60,125,-130,-130,125,295,1998
12,F,Courtney Corrente,SBD,F-V,56,Single-ply,Neenah,WI,55.2,107.5,-117.5,-117.5,107.5,42.5,47.5,-55,47.5,117.5,127.5,137.5,137.5,292.5,2000
13,F,Kendra Bartels,SBD,F-V,56,Single-ply,Necedah,WI,55.3,105,110,112.5,112.5,47.5,52.5,55,55,107.5,112.5,115,115,282.5,1999
1,F,Tristyn Hutchins,SBD,F-V,60,Single-ply,Necedah,WI,56.7,165,-172.5,175,175,92.5,97.5,100,100,150,160,165,165,440,1997
2,F,Sam Kroll,SBD,F-V,60,Single-ply,Eau Cla,WI,58.8,155,162.5,167.5,167.5,90,95,100,100,142.5,152.5,-175,152.5,420,1997
3,F,Maddie Graham,SBD,F-V,60,Single-ply,Salado,TX,59.4,142.5,155,-160,155,92.5,97.5,102.5,102.5,147.5,-157.5,-157.5,147.5,405,1999
4,F,Jane Krueger,SBD,F-V,60,Single-ply,Winneco,WI,58,142.5,150,160,160,57.5,60,-62.5,60,150,160,165,165,385,1999
5,F,Megan Plantz,SBD,F-V,60,Single-ply,Necedah,WI,59.1,127.5,132.5,140,140,80,87.5,-90,87.5,145,152.5,-155,152.5,380,1998
6,F,Leah Mickelson,SBD,F-V,60,Single-ply,North H,WI,59.2,132.5,142.5,150,150,-82.5,82.5,-87.5,82.5,130,140,-150,140,372.5,1999
7,F,Breasia Sylvain,SBD,F-V,60,Single-ply,ASH Hig,LA,57.5,127.5,140,-152.5,140,52.5,60,65,65,132.5,150,-162.5,150,355,2000
8,F,Kelsey Johnson,SBD,F-V,60,Single-ply,Adams F,WI,57.9,125,132.5,140,140,50,57.5,-62.5,57.5,132.5,142.5,152.5,152.5,350,1999
9,F,Haley Lang,SBD,F-V,60,Single-ply,Horlick,WI,59.4,130,137.5,145,145,55,60,62.5,62.5,130,137.5,142.5,142.5,350,1998
10,F,Allison Duhon,SBD,F-V,60,Single-ply,Northsh,LA,59,127.5,135,-147.5,135,52.5,57.5,-65,57.5,142.5,152.5,-160,152.5,345,1999
1,F,Jordanne Panton,SBD,F-V,67.5,Single-ply,Arrowhe,WI,62.7,162.5,172.5,180,180,87.5,90,92.5,92.5,175,187.5,192.5,192.5,465,1999
2,F,Valeria Martinzes Ponce,SBD,F-V,67.5,Single-ply,Bever,WI,66.1,142.5,155,162.5,162.5,62.5,70,72.5,72.5,142.5,155,167.5,167.5,402.5,1998
3,F,Tamarah Clemmens,SBD,F-V,67.5,Single-ply,New Ric,WI,67.2,147.5,155,-160,155,-75,-75,75,75,160,167.5,170,170,400,1998
4,F,Emma Ramsey,SBD,F-V,67.5,Single-ply,Horlick,WI,64.7,145,152.5,157.5,157.5,70,75,80,80,152.5,155,160,160,397.5,1998
5,F,Samantha Sherwood,SBD,F-V,67.5,Single-ply,Adams F,WI,67.3,157.5,-162.5,-162.5,157.5,60,-65,65,65,160,167.5,-170,167.5,390,1999
6,F,Alyssa Kuss,SBD,F-V,67.5,Single-ply,Adams F,WI,62,142.5,155,-162.5,155,55,60,67.5,67.5,150,162.5,-170,162.5,385,1999
7,F,Asia McGee,SBD,F-V,67.5,Single-ply,ASH Hig,LA,61.7,135,147.5,-160,147.5,67.5,75,80,80,135,147.5,155,155,382.5,1999
8,F,Esther Theisen,SBD,F-V,67.5,Single-ply,,WI,64.7,140,150,-157.5,150,60,67.5,75,75,145,152.5,-157.5,152.5,377.5,1998
9,F,Madison Ellenbecker,SBD,F-V,67.5,Single-ply,Seymour,WI,66.1,125,135,140,140,62.5,70,77.5,77.5,140,150,-160,150,367.5,1997
10,F,Brittany Danda,SBD,F-V,67.5,Single-ply,Poynett,WI,62.1,-130,130,147.5,147.5,50,55,57.5,57.5,127.5,140,147.5,147.5,352.5,1998
11,F,Kaitlyn Hearty,SBD,F-V,67.5,Single-ply,Northla,LA,65.2,130,-137.5,137.5,137.5,-60,60,-65,60,137.5,142.5,147.5,147.5,345,1997
12,F,Sawyer Ryder,SBD,F-V,67.5,Single-ply,Holy Sa,LA,66.7,112.5,127.5,-137.5,127.5,50,57.5,60,60,145,-150,150,150,337.5,1999
13,F,Caitlyn Cooper,SBD,F-V,67.5,Single-ply,Indepen,WI,65.9,125,130,135,135,-62.5,65,-70,65,115,122.5,127.5,127.5,327.5,1998
14,F,Mel Hess,SBD,F-V,67.5,Single-ply,Necedah,WI,64.8,130,137.5,145,145,55,57.5,-62.5,57.5,110,120,-130,120,322.5,1999
15,F,Elizabeth Alejandro,SBD,F-V,67.5,Single-ply,Carrizo,TX,65.4,137.5,140,-142.5,140,52.5,57.5,-60,57.5,120,122.5,-127.5,122.5,320,1999
16,F,Sarah Branton,SBD,F-V,67.5,Single-ply,Holy Sa,LA,61.9,115,-125,125,125,47.5,-55,-55,47.5,140,145,-152.5,145,317.5,1998
17,F,Natalie Picou,SBD,F-V,67.5,Single-ply,South T,LA,63,125,137.5,-145,137.5,52.5,-60,-60,52.5,120,127.5,-137.5,127.5,317.5,1997
18,F,Raven Salazar,SBD,F-V,67.5,Single-ply,Northsh,LA,65.9,-102.5,102.5,-112.5,102.5,52.5,-57.5,57.5,57.5,112.5,120,-127.5,120,280,1999
1,F,Lydia Mele,SBD,F-V,75,Single-ply,Mele Ac,GA,73.7,155,160,165,165,102.5,105,110,110,150,162.5,-170,162.5,437.5,1998
2,F,Brittany Rabe,SBD,F-V,75,Single-ply,Waterfo,WI,68.3,-167.5,-167.5,167.5,167.5,85,87.5,-95,87.5,170,180,-190,180,435,1998
3,F,Amber Kierstyn,SBD,F-V,75,Single-ply,Adams F,WI,69.9,157.5,167.5,-170,167.5,87.5,95,-100,95,167.5,172.5,-182.5,172.5,435,1998
4,F,Amanda Messina,SBD,F-V,75,Single-ply,ASH Hig,LA,74.7,145,155,-167.5,155,82.5,87.5,90,90,150,167.5,-192.5,167.5,412.5,1998
5,F,Dallas Cavegn,SBD,F-V,75,Single-ply,Neenah,WI,72.9,137.5,150,157.5,157.5,75,82.5,90,90,137.5,147.5,157.5,157.5,405,2000
6,F,Camryn Ochs,SBD,F-V,75,Single-ply,Waterfo,WI,72.8,137.5,-147.5,155,155,77.5,85,92.5,92.5,135,140,147.5,147.5,395,1999
7,F,Hailee Ruskowsky,SBD,F-V,75,Single-ply,Necedah,WI,71.6,155,167.5,175,175,-50,50,57.5,57.5,122.5,130,147.5,147.5,380,1998
8,F,Nina Duffeck,SBD,F-V,75,Single-ply,Neenah,WI,72.6,132.5,145,152.5,152.5,65,72.5,80,80,130,140,145,145,377.5,1999
9,F,Alysia Diaz,SBD,F-V,75,Single-ply,Slidell,LA,74.7,135,-150,-150,135,57.5,65,-70,65,142.5,-152.5,-152.5,142.5,342.5,1997
10,F,Tracy Payne,SBD,F-V,75,Single-ply,Kelly W,WY,74.1,115,-120,-120,115,60,62.5,-70,62.5,125,132.5,-142.5,132.5,310,1998
DQ,F,Liz Blankinship,SBD,F-V,75,Single-ply,Lake Co,MS,73.7,-160,-175,-177.5,,75,82.5,87.5,87.5,150,-175,-175,150,,1998
1,F,Kaija Newman,SBD,F-V,82.5,Single-ply,Osceola,WI,77.3,180,187.5,190,190,85,90,97.5,97.5,165,175,-187.5,175,462.5,1998
2,F,Brittany Williams,SBD,F-V,82.5,Single-ply,ASH Hig,LA,78.4,177.5,180,182.5,182.5,82.5,95,-97.5,95,160,170,-185,170,447.5,1999
3,F,Emma Wothe,SBD,F-V,82.5,Single-ply,New Ric,WI,81,160,172.5,-180,172.5,57.5,65,-75,65,142.5,150,155,155,392.5,1999
4,F,Anni Knapinski,SBD,F-V,82.5,Single-ply,Necedah,WI,76.4,142.5,152.5,155,155,62.5,70,72.5,72.5,142.5,152.5,160,160,387.5,1997
5,F,Olivia J Shafer,SBD,F-V,82.5,Single-ply,Laconia,WI,78.3,-147.5,155,-167.5,155,62.5,67.5,72.5,72.5,140,150,-157.5,150,377.5,1998
6,F,Sophia Dionne,SBD,F-V,82.5,Single-ply,St. Mar,WI,77.5,135,-145,-150,135,67.5,-75,80,80,130,140,147.5,147.5,362.5,1998
7,F,Kylie Julian,SBD,F-V,82.5,Single-ply,Northsh,LA,81.6,122.5,135,-155,135,47.5,-52.5,55,55,147.5,157.5,165,165,355,1997
8,F,Destiny Bias,SBD,F-V,82.5,Single-ply,ASH Hig,LA,82.5,137.5,145,-150,145,60,-65,65,65,137.5,-147.5,-150,137.5,347.5,1999
9,F,Mariah Maldonado,SBD,F-V,82.5,Single-ply,Whitnal,WI,79.8,-127.5,127.5,137.5,137.5,60,65,70,70,125,135,-140,135,342.5,1994
DQ,F,Emma Hertz,SBD,F-V,82.5,Single-ply,O'Gorma,SD,80.4,110,-132.5,-132.5,110,-57.5,-57.5,-57.5,,147.5,157.5,-175,157.5,,1997
1,F,Karley Wyngaard,SBD,F-V,90,Single-ply,Neenah,WI,86.8,170,182.5,190,190,80,-90,-90,80,152.5,165,175,175,445,1997
2,F,Melissa Reyes,SBD,F-V,90,Single-ply,Carrizo,TX,83.7,-185,-185,185,185,85,90,95,95,162.5,-172.5,-175,162.5,442.5,1998
3,F,Dakota Irek,SBD,F-V,90,Single-ply,Horlick,WI,90,160,170,177.5,177.5,87.5,92.5,97.5,97.5,157.5,162.5,-167.5,162.5,437.5,1999
4,F,Hunter Gibson #1,SBD,F-V,90,Single-ply,ASH Hig,LA,84.1,-150,-150,150,150,75,85,-90,85,155,170,177.5,177.5,412.5,1999
1,F,LeeAnn Hewitt,SBD,F-V,90+,Single-ply,Welling,FL,151.4,220,232.5,245,245,102.5,110,115,115,207.5,220,-230,220,580,1999
2,F,Lily Poisso,SBD,F-V,90+,Single-ply,ASH Hig,LA,117.5,182.5,192.5,200,200,95,105,115,115,-175,185,197.5,197.5,512.5,1998
3,F,Cerrina Stokes,SBD,F-V,90+,Single-ply,Omro Hi,WI,148.9,205,215,-222.5,215,82.5,92.5,-102.5,92.5,175,185,195,195,502.5,1998
4,F,Sophia Woychik,SBD,F-V,90+,Single-ply,Indepen,WI,111.3,185,197.5,-210,197.5,-92.5,95,-107.5,95,177.5,185,192.5,192.5,485,1997
5,F,Kristen Opiela,SBD,F-V,90+,Single-ply,Neenah,WI,100.7,-170,177.5,185,185,75,82.5,92.5,92.5,170,180,190,190,467.5,2000
6,F,Payge Pagart,SBD,F-V,90+,Single-ply,Salmen,LA,119.6,182.5,190,197.5,197.5,75,87.5,-97.5,87.5,142.5,147.5,150,150,435,1999
7,F,Amanda Schenck,SBD,F-V,90+,Single-ply,Covingt,LA,145.7,157.5,167.5,-175,167.5,82.5,92.5,97.5,97.5,137.5,155,-172.5,155,420,1997
8,F,Amanda Horaist,SBD,F-V,90+,Single-ply,Northsh,LA,129.4,157.5,-182.5,-182.5,157.5,60,67.5,72.5,72.5,142.5,155,-165,155,385,1998
